{
    "wallpaper": "/home/xnlshewei/.wallpaper/IMG_20161024_085619_HDR.jpg",
    "alpha": "100",
    "special": {
        "background": "#0d0f0c",
        "foreground": "#d2d9d0",
        "cursor": "#d2d9d0"
    },
    "colors": {
        "color0": "#0d0f0c",
        "color1": "#569334",
        "color2": "#68965E",
        "color3": "#96A76C",
        "color4": "#7B708E",
        "color5": "#6D94A7",
        "color6": "#9C9A94",
        "color7": "#d2d9d0",
        "color8": "#939791",
        "color9": "#569334",
        "color10": "#68965E",
        "color11": "#96A76C",
        "color12": "#7B708E",
        "color13": "#6D94A7",
        "color14": "#9C9A94",
        "color15": "#d2d9d0"
    }
}